
--- FlushLogCache: WriteOnErrorOnly
[11:28:26.103][ea7fc1ab] INFO[DATA]: [DATE:18.06.18][OFFSET:-00][RL:1.12.0][PHP:5.5.9-1ubuntu4.25][IP:172.19.0.4][PID:13][Apache/2.4.7 (Ubuntu)][apache2handler]
[11:28:26.103][ea7fc1ab] INFO[DATA]: [Suhosin:off][APC:on][MB:on][PDO:mysql][Streams:tcp,udp,unix,udg,ssl,sslv3,tls]
[11:28:26.103][ea7fc1ab] REQUEST[NOTE]: [POST] http://localhost/?/Ajax/&q[]=/_oCAM9aildk0fzc5oMQmesXmC1Q46HcPxtAgMxzsIXv7yups8qm1JCCSgL8s2vT8Pp0NGf42vSeYgjJy00vZdQq9JtQs8J28k9Dz4yGpXPmiswOLQzTyyT87gilW2C0fYOEUJ2NNZbB4DXE11Y_UGcMHXcD08y-7eSufrOj49eXp-cUhF5qvzD0rAuOwzw8-zHuxzoe10pP04VJ4SghJLWgMe8sus4KwoQyrQlNxx_ExrhVaaQTvZmX7ItNxgs_u0VBFOc7ZUQkSks-R8f-AV-443-DHjugxjZz9o54S6_7JTMq2EPqkXkkKchMutPPpWEEnl7B5grgh89kyS1VKt1IVrPSefvrwyF7BGXBc156A/
[11:28:26.104][ea7fc1ab] AJAX[NOTE]: Action: DoFolders
[11:28:26.104][ea7fc1ab] POST[DATA]: {"Action":"Folders","XToken":"2526d1749c6b8a90eb2a80f812055bf5"}
[11:28:26.124][ea7fc1ab] IMAP[NOTE]: Start connection to "ssl://192.168.0.3:993"
[11:28:36.150][ea7fc1ab] IMAP[NOTE]: Connected (unsuccess)
--- FlushLogCache: Trigger
[11:28:36.163][ea7fc1ab] IMAP[NOTICE]: Socket: [2] stream_socket_client(): unable to connect to ssl://192.168.0.3:993 (Connection timed out)
[11:28:36.166][ea7fc1ab] IMAP[NOTICE]: exception 'MailSo\Net\Exceptions\SocketCanNotConnectToHostException' with message 'Can't connect to host "ssl://192.168.0.3:993"' in /var/www/site/app/rainloop/v/1.12.0/app/libraries/MailSo/Net/NetClient.php:292
Stack trace:
#0 /var/www/site/app/rainloop/v/1.12.0/app/libraries/MailSo/Imap/ImapClient.php(153): MailSo\Net\NetClient->Connect('192.168.0.3', 993, 1, false, true)
#1 /var/www/site/app/rainloop/v/1.12.0/app/libraries/MailSo/Mail/MailClient.php(72): MailSo\Imap\ImapClient->Connect('192.168.0.3', 993, 1, false)
#2 /var/www/site/app/rainloop/v/1.12.0/app/libraries/RainLoop/Model/Account.php(424): MailSo\Mail\MailClient->Connect('192.168.0.3', 993, 1, false, true)
#3 /var/www/site/app/rainloop/v/1.12.0/app/libraries/RainLoop/Actions.php(9024): RainLoop\Model\Account->IncConnectAndLoginHelper(Object(RainLoop\Plugins\Manager), Object(MailSo\Mail\MailClient), Object(RainLoop\Config\Application))
#4 /var/www/site/app/rainloop/v/1.12.0/app/libraries/RainLoop/Actions.php(5335): RainLoop\Actions->initMailClientConnection()
#5 [internal function]: RainLoop\Actions->DoFolders()
#6 /var/www/site/app/rainloop/v/1.12.0/app/libraries/RainLoop/ServiceActions.php(172): call_user_func(Array)
#7 [internal function]: RainLoop\ServiceActions->ServiceAjax('')
#8 /var/www/site/app/rainloop/v/1.12.0/app/libraries/RainLoop/Service.php(146): call_user_func(Array, '')
#9 /var/www/site/app/rainloop/v/1.12.0/app/libraries/RainLoop/Service.php(56): RainLoop\Service->localHandle()
#10 /var/www/site/app/rainloop/v/1.12.0/app/libraries/RainLoop/Service.php(79): RainLoop\Service->__construct()
#11 /var/www/site/app/rainloop/v/1.12.0/app/handle.php(94): RainLoop\Service::Handle()
#12 /var/www/site/app/rainloop/v/1.12.0/include.php(228): include('/var/www/site/a...')
#13 /var/www/site/app/index.php(13): include('/var/www/site/a...')
#14 {main}
[11:28:36.182][ea7fc1ab] INFO[ERROR]: exception 'MailSo\Net\Exceptions\SocketCanNotConnectToHostException' with message 'Can't connect to host "ssl://192.168.0.3:993"' in /var/www/site/app/rainloop/v/1.12.0/app/libraries/MailSo/Net/NetClient.php:292
Stack trace:
#0 /var/www/site/app/rainloop/v/1.12.0/app/libraries/MailSo/Imap/ImapClient.php(153): MailSo\Net\NetClient->Connect('192.168.0.3', 993, 1, false, true)
#1 /var/www/site/app/rainloop/v/1.12.0/app/libraries/MailSo/Mail/MailClient.php(72): MailSo\Imap\ImapClient->Connect('192.168.0.3', 993, 1, false)
#2 /var/www/site/app/rainloop/v/1.12.0/app/libraries/RainLoop/Model/Account.php(424): MailSo\Mail\MailClient->Connect('192.168.0.3', 993, 1, false, true)
#3 /var/www/site/app/rainloop/v/1.12.0/app/libraries/RainLoop/Actions.php(9024): RainLoop\Model\Account->IncConnectAndLoginHelper(Object(RainLoop\Plugins\Manager), Object(MailSo\Mail\MailClient), Object(RainLoop\Config\Application))
#4 /var/www/site/app/rainloop/v/1.12.0/app/libraries/RainLoop/Actions.php(5335): RainLoop\Actions->initMailClientConnection()
#5 [internal function]: RainLoop\Actions->DoFolders()
#6 /var/www/site/app/rainloop/v/1.12.0/app/libraries/RainLoop/ServiceActions.php(172): call_user_func(Array)
#7 [internal function]: RainLoop\ServiceActions->ServiceAjax('')
#8 /var/www/site/app/rainloop/v/1.12.0/app/libraries/RainLoop/Service.php(146): call_user_func(Array, '')
#9 /var/www/site/app/rainloop/v/1.12.0/app/libraries/RainLoop/Service.php(56): RainLoop\Service->localHandle()
#10 /var/www/site/app/rainloop/v/1.12.0/app/libraries/RainLoop/Service.php(79): RainLoop\Service->__construct()
#11 /var/www/site/app/rainloop/v/1.12.0/app/handle.php(94): RainLoop\Service::Handle()
#12 /var/www/site/app/rainloop/v/1.12.0/include.php(228): include('/var/www/site/a...')
#13 /var/www/site/app/index.php(13): include('/var/www/site/a...')
#14 {main}

Next exception 'RainLoop\Exceptions\ClientException' with message 'ConnectionError[104]' in /var/www/site/app/rainloop/v/1.12.0/app/libraries/RainLoop/Actions.php:9028
Stack trace:
#0 /var/www/site/app/rainloop/v/1.12.0/app/libraries/RainLoop/Actions.php(5335): RainLoop\Actions->initMailClientConnection()
#1 [internal function]: RainLoop\Actions->DoFolders()
#2 /var/www/site/app/rainloop/v/1.12.0/app/libraries/RainLoop/ServiceActions.php(172): call_user_func(Array)
#3 [internal function]: RainLoop\ServiceActions->ServiceAjax('')
#4 /var/www/site/app/rainloop/v/1.12.0/app/libraries/RainLoop/Service.php(146): call_user_func(Array, '')
#5 /var/www/site/app/rainloop/v/1.12.0/app/libraries/RainLoop/Service.php(56): RainLoop\Service->localHandle()
#6 /var/www/site/app/rainloop/v/1.12.0/app/libraries/RainLoop/Service.php(79): RainLoop\Service->__construct()
#7 /var/www/site/app/rainloop/v/1.12.0/app/handle.php(94): RainLoop\Service::Handle()
#8 /var/www/site/app/rainloop/v/1.12.0/include.php(228): include('/var/www/site/a...')
#9 /var/www/site/app/index.php(13): include('/var/www/site/a...')
#10 {main}
[11:28:36.184][ea7fc1ab] AJAX[DATA]: {"Action":"Folders","Result":false,"ErrorCode":104,"ErrorMessage":"","ErrorMessageAdditional":"","ClearAuth":true,"Time":10112}
[11:28:36.190][ea7fc1ab] INFO[MEMORY]: Memory peak usage: 1.25MB
[11:28:36.193][ea7fc1ab] INFO[TIME]: Time delta: 10.104233980179

--- FlushLogCache: WriteOnErrorOnly
[11:28:39.937][4c9441bb] INFO[DATA]: [DATE:18.06.18][OFFSET:-00][RL:1.12.0][PHP:5.5.9-1ubuntu4.25][IP:172.19.0.4][PID:32][Apache/2.4.7 (Ubuntu)][apache2handler]
[11:28:39.937][4c9441bb] INFO[DATA]: [Suhosin:off][APC:on][MB:on][PDO:mysql][Streams:tcp,udp,unix,udg,ssl,sslv3,tls]
[11:28:39.937][4c9441bb] REQUEST[NOTE]: [POST] http://localhost/?/Ajax/&q[]=/0/
[11:28:39.939][4c9441bb] AJAX[NOTE]: Action: DoLogin
[11:28:39.939][4c9441bb] POST[DATA]: {"Email":"thara@coppermail.dyndns.org","Login":"","Password":"*******","Language":"","AdditionalCode":"","AdditionalCodeSignMe":"0","SignMe":"0","Action":"Login","XToken":"2526d1749c6b8a90eb2a80f812055bf5"}
[11:28:39.978][4c9441bb] IMAP[NOTE]: Start connection to "ssl://192.168.0.3:993"
[11:28:49.996][4c9441bb] IMAP[NOTE]: Connected (unsuccess)
--- FlushLogCache: Trigger
[11:28:50.000][4c9441bb] IMAP[NOTICE]: Socket: [2] stream_socket_client(): unable to connect to ssl://192.168.0.3:993 (Connection timed out)
[11:28:50.003][4c9441bb] IMAP[NOTICE]: exception 'MailSo\Net\Exceptions\SocketCanNotConnectToHostException' with message 'Can't connect to host "ssl://192.168.0.3:993"' in /var/www/site/app/rainloop/v/1.12.0/app/libraries/MailSo/Net/NetClient.php:292
Stack trace:
#0 /var/www/site/app/rainloop/v/1.12.0/app/libraries/MailSo/Imap/ImapClient.php(153): MailSo\Net\NetClient->Connect('192.168.0.3', 993, 1, false, true)
#1 /var/www/site/app/rainloop/v/1.12.0/app/libraries/MailSo/Mail/MailClient.php(72): MailSo\Imap\ImapClient->Connect('192.168.0.3', 993, 1, false)
#2 /var/www/site/app/rainloop/v/1.12.0/app/libraries/RainLoop/Model/Account.php(424): MailSo\Mail\MailClient->Connect('192.168.0.3', 993, 1, false, true)
#3 /var/www/site/app/rainloop/v/1.12.0/app/libraries/RainLoop/Actions.php(2078): RainLoop\Model\Account->IncConnectAndLoginHelper(Object(RainLoop\Plugins\Manager), Object(MailSo\Mail\MailClient), Object(RainLoop\Config\Application))
#4 /var/www/site/app/rainloop/v/1.12.0/app/libraries/RainLoop/Actions.php(2329): RainLoop\Actions->CheckMailConnection(Object(RainLoop\Model\Account), true)
#5 /var/www/site/app/rainloop/v/1.12.0/app/libraries/RainLoop/Actions.php(2383): RainLoop\Actions->LoginProcess('thara@coppermai...', '*******', '', '', false)
#6 [internal function]: RainLoop\Actions->DoLogin()
#7 /var/www/site/app/rainloop/v/1.12.0/app/libraries/RainLoop/ServiceActions.php(172): call_user_func(Array)
#8 [internal function]: RainLoop\ServiceActions->ServiceAjax('')
#9 /var/www/site/app/rainloop/v/1.12.0/app/libraries/RainLoop/Service.php(146): call_user_func(Array, '')
#10 /var/www/site/app/rainloop/v/1.12.0/app/libraries/RainLoop/Service.php(56): RainLoop\Service->localHandle()
#11 /var/www/site/app/rainloop/v/1.12.0/app/libraries/RainLoop/Service.php(79): RainLoop\Service->__construct()
#12 /var/www/site/app/rainloop/v/1.12.0/app/handle.php(94): RainLoop\Service::Handle()
#13 /var/www/site/app/rainloop/v/1.12.0/include.php(228): include('/var/www/site/a...')
#14 /var/www/site/app/index.php(13): include('/var/www/site/a...')
#15 {main}
[11:28:50.009][4c9441bb] INFO[ERROR]: exception 'MailSo\Net\Exceptions\SocketCanNotConnectToHostException' with message 'Can't connect to host "ssl://192.168.0.3:993"' in /var/www/site/app/rainloop/v/1.12.0/app/libraries/MailSo/Net/NetClient.php:292
Stack trace:
#0 /var/www/site/app/rainloop/v/1.12.0/app/libraries/MailSo/Imap/ImapClient.php(153): MailSo\Net\NetClient->Connect('192.168.0.3', 993, 1, false, true)
#1 /var/www/site/app/rainloop/v/1.12.0/app/libraries/MailSo/Mail/MailClient.php(72): MailSo\Imap\ImapClient->Connect('192.168.0.3', 993, 1, false)
#2 /var/www/site/app/rainloop/v/1.12.0/app/libraries/RainLoop/Model/Account.php(424): MailSo\Mail\MailClient->Connect('192.168.0.3', 993, 1, false, true)
#3 /var/www/site/app/rainloop/v/1.12.0/app/libraries/RainLoop/Actions.php(2078): RainLoop\Model\Account->IncConnectAndLoginHelper(Object(RainLoop\Plugins\Manager), Object(MailSo\Mail\MailClient), Object(RainLoop\Config\Application))
#4 /var/www/site/app/rainloop/v/1.12.0/app/libraries/RainLoop/Actions.php(2329): RainLoop\Actions->CheckMailConnection(Object(RainLoop\Model\Account), true)
#5 /var/www/site/app/rainloop/v/1.12.0/app/libraries/RainLoop/Actions.php(2383): RainLoop\Actions->LoginProcess('thara@coppermai...', '*******', '', '', false)
#6 [internal function]: RainLoop\Actions->DoLogin()
#7 /var/www/site/app/rainloop/v/1.12.0/app/libraries/RainLoop/ServiceActions.php(172): call_user_func(Array)
#8 [internal function]: RainLoop\ServiceActions->ServiceAjax('')
#9 /var/www/site/app/rainloop/v/1.12.0/app/libraries/RainLoop/Service.php(146): call_user_func(Array, '')
#10 /var/www/site/app/rainloop/v/1.12.0/app/libraries/RainLoop/Service.php(56): RainLoop\Service->localHandle()
#11 /var/www/site/app/rainloop/v/1.12.0/app/libraries/RainLoop/Service.php(79): RainLoop\Service->__construct()
#12 /var/www/site/app/rainloop/v/1.12.0/app/handle.php(94): RainLoop\Service::Handle()
#13 /var/www/site/app/rainloop/v/1.12.0/include.php(228): include('/var/www/site/a...')
#14 /var/www/site/app/index.php(13): include('/var/www/site/a...')
#15 {main}

Next exception 'RainLoop\Exceptions\ClientException' with message 'ConnectionError[104]' in /var/www/site/app/rainloop/v/1.12.0/app/libraries/RainLoop/Actions.php:2086
Stack trace:
#0 /var/www/site/app/rainloop/v/1.12.0/app/libraries/RainLoop/Actions.php(2329): RainLoop\Actions->CheckMailConnection(Object(RainLoop\Model\Account), true)
#1 /var/www/site/app/rainloop/v/1.12.0/app/libraries/RainLoop/Actions.php(2383): RainLoop\Actions->LoginProcess('thara@coppermai...', '*******', '', '', false)
#2 [internal function]: RainLoop\Actions->DoLogin()
#3 /var/www/site/app/rainloop/v/1.12.0/app/libraries/RainLoop/ServiceActions.php(172): call_user_func(Array)
#4 [internal function]: RainLoop\ServiceActions->ServiceAjax('')
#5 /var/www/site/app/rainloop/v/1.12.0/app/libraries/RainLoop/Service.php(146): call_user_func(Array, '')
#6 /var/www/site/app/rainloop/v/1.12.0/app/libraries/RainLoop/Service.php(56): RainLoop\Service->localHandle()
#7 /var/www/site/app/rainloop/v/1.12.0/app/libraries/RainLoop/Service.php(79): RainLoop\Service->__construct()
#8 /var/www/site/app/rainloop/v/1.12.0/app/handle.php(94): RainLoop\Service::Handle()
#9 /var/www/site/app/rainloop/v/1.12.0/include.php(228): include('/var/www/site/a...')
#10 /var/www/site/app/index.php(13): include('/var/www/site/a...')
#11 {main}
[11:28:50.011][4c9441bb] AJAX[DATA]: {"Action":"Login","Result":false,"ErrorCode":104,"ErrorMessage":"","ErrorMessageAdditional":"","Time":10142}
[11:28:50.019][4c9441bb] INFO[MEMORY]: Memory peak usage: 1.25MB
[11:28:50.024][4c9441bb] INFO[TIME]: Time delta: 10.130086898804

--- FlushLogCache: WriteOnErrorOnly
[11:28:56.022][8f59f0c9] INFO[DATA]: [DATE:18.06.18][OFFSET:-00][RL:1.12.0][PHP:5.5.9-1ubuntu4.25][IP:172.19.0.4][PID:12][Apache/2.4.7 (Ubuntu)][apache2handler]
[11:28:56.022][8f59f0c9] INFO[DATA]: [Suhosin:off][APC:on][MB:on][PDO:mysql][Streams:tcp,udp,unix,udg,ssl,sslv3,tls]
[11:28:56.022][8f59f0c9] REQUEST[NOTE]: [POST] http://localhost/?/Ajax/&q[]=/0/
[11:28:56.023][8f59f0c9] AJAX[NOTE]: Action: DoLogin
[11:28:56.024][8f59f0c9] POST[DATA]: {"Email":"thara@coppermail.dyndns.org","Login":"","Password":"*******","Language":"","AdditionalCode":"","AdditionalCodeSignMe":"0","SignMe":"0","Action":"Login","XToken":"2526d1749c6b8a90eb2a80f812055bf5"}
[11:28:56.056][8f59f0c9] IMAP[NOTE]: Start connection to "ssl://192.168.0.3:993"
[11:29:06.074][8f59f0c9] IMAP[NOTE]: Connected (unsuccess)
--- FlushLogCache: Trigger
[11:29:06.079][8f59f0c9] IMAP[NOTICE]: Socket: [2] stream_socket_client(): unable to connect to ssl://192.168.0.3:993 (Connection timed out)
[11:29:06.082][8f59f0c9] IMAP[NOTICE]: exception 'MailSo\Net\Exceptions\SocketCanNotConnectToHostException' with message 'Can't connect to host "ssl://192.168.0.3:993"' in /var/www/site/app/rainloop/v/1.12.0/app/libraries/MailSo/Net/NetClient.php:292
Stack trace:
#0 /var/www/site/app/rainloop/v/1.12.0/app/libraries/MailSo/Imap/ImapClient.php(153): MailSo\Net\NetClient->Connect('192.168.0.3', 993, 1, false, true)
#1 /var/www/site/app/rainloop/v/1.12.0/app/libraries/MailSo/Mail/MailClient.php(72): MailSo\Imap\ImapClient->Connect('192.168.0.3', 993, 1, false)
#2 /var/www/site/app/rainloop/v/1.12.0/app/libraries/RainLoop/Model/Account.php(424): MailSo\Mail\MailClient->Connect('192.168.0.3', 993, 1, false, true)
#3 /var/www/site/app/rainloop/v/1.12.0/app/libraries/RainLoop/Actions.php(2078): RainLoop\Model\Account->IncConnectAndLoginHelper(Object(RainLoop\Plugins\Manager), Object(MailSo\Mail\MailClient), Object(RainLoop\Config\Application))
#4 /var/www/site/app/rainloop/v/1.12.0/app/libraries/RainLoop/Actions.php(2329): RainLoop\Actions->CheckMailConnection(Object(RainLoop\Model\Account), true)
#5 /var/www/site/app/rainloop/v/1.12.0/app/libraries/RainLoop/Actions.php(2383): RainLoop\Actions->LoginProcess('thara@coppermai...', '*******', '', '', false)
#6 [internal function]: RainLoop\Actions->DoLogin()
#7 /var/www/site/app/rainloop/v/1.12.0/app/libraries/RainLoop/ServiceActions.php(172): call_user_func(Array)
#8 [internal function]: RainLoop\ServiceActions->ServiceAjax('')
#9 /var/www/site/app/rainloop/v/1.12.0/app/libraries/RainLoop/Service.php(146): call_user_func(Array, '')
#10 /var/www/site/app/rainloop/v/1.12.0/app/libraries/RainLoop/Service.php(56): RainLoop\Service->localHandle()
#11 /var/www/site/app/rainloop/v/1.12.0/app/libraries/RainLoop/Service.php(79): RainLoop\Service->__construct()
#12 /var/www/site/app/rainloop/v/1.12.0/app/handle.php(94): RainLoop\Service::Handle()
#13 /var/www/site/app/rainloop/v/1.12.0/include.php(228): include('/var/www/site/a...')
#14 /var/www/site/app/index.php(13): include('/var/www/site/a...')
#15 {main}
[11:29:06.089][8f59f0c9] INFO[ERROR]: exception 'MailSo\Net\Exceptions\SocketCanNotConnectToHostException' with message 'Can't connect to host "ssl://192.168.0.3:993"' in /var/www/site/app/rainloop/v/1.12.0/app/libraries/MailSo/Net/NetClient.php:292
Stack trace:
#0 /var/www/site/app/rainloop/v/1.12.0/app/libraries/MailSo/Imap/ImapClient.php(153): MailSo\Net\NetClient->Connect('192.168.0.3', 993, 1, false, true)
#1 /var/www/site/app/rainloop/v/1.12.0/app/libraries/MailSo/Mail/MailClient.php(72): MailSo\Imap\ImapClient->Connect('192.168.0.3', 993, 1, false)
#2 /var/www/site/app/rainloop/v/1.12.0/app/libraries/RainLoop/Model/Account.php(424): MailSo\Mail\MailClient->Connect('192.168.0.3', 993, 1, false, true)
#3 /var/www/site/app/rainloop/v/1.12.0/app/libraries/RainLoop/Actions.php(2078): RainLoop\Model\Account->IncConnectAndLoginHelper(Object(RainLoop\Plugins\Manager), Object(MailSo\Mail\MailClient), Object(RainLoop\Config\Application))
#4 /var/www/site/app/rainloop/v/1.12.0/app/libraries/RainLoop/Actions.php(2329): RainLoop\Actions->CheckMailConnection(Object(RainLoop\Model\Account), true)
#5 /var/www/site/app/rainloop/v/1.12.0/app/libraries/RainLoop/Actions.php(2383): RainLoop\Actions->LoginProcess('thara@coppermai...', '*******', '', '', false)
#6 [internal function]: RainLoop\Actions->DoLogin()
#7 /var/www/site/app/rainloop/v/1.12.0/app/libraries/RainLoop/ServiceActions.php(172): call_user_func(Array)
#8 [internal function]: RainLoop\ServiceActions->ServiceAjax('')
#9 /var/www/site/app/rainloop/v/1.12.0/app/libraries/RainLoop/Service.php(146): call_user_func(Array, '')
#10 /var/www/site/app/rainloop/v/1.12.0/app/libraries/RainLoop/Service.php(56): RainLoop\Service->localHandle()
#11 /var/www/site/app/rainloop/v/1.12.0/app/libraries/RainLoop/Service.php(79): RainLoop\Service->__construct()
#12 /var/www/site/app/rainloop/v/1.12.0/app/handle.php(94): RainLoop\Service::Handle()
#13 /var/www/site/app/rainloop/v/1.12.0/include.php(228): include('/var/www/site/a...')
#14 /var/www/site/app/index.php(13): include('/var/www/site/a...')
#15 {main}

Next exception 'RainLoop\Exceptions\ClientException' with message 'ConnectionError[104]' in /var/www/site/app/rainloop/v/1.12.0/app/libraries/RainLoop/Actions.php:2086
Stack trace:
#0 /var/www/site/app/rainloop/v/1.12.0/app/libraries/RainLoop/Actions.php(2329): RainLoop\Actions->CheckMailConnection(Object(RainLoop\Model\Account), true)
#1 /var/www/site/app/rainloop/v/1.12.0/app/libraries/RainLoop/Actions.php(2383): RainLoop\Actions->LoginProcess('thara@coppermai...', '*******', '', '', false)
#2 [internal function]: RainLoop\Actions->DoLogin()
#3 /var/www/site/app/rainloop/v/1.12.0/app/libraries/RainLoop/ServiceActions.php(172): call_user_func(Array)
#4 [internal function]: RainLoop\ServiceActions->ServiceAjax('')
#5 /var/www/site/app/rainloop/v/1.12.0/app/libraries/RainLoop/Service.php(146): call_user_func(Array, '')
#6 /var/www/site/app/rainloop/v/1.12.0/app/libraries/RainLoop/Service.php(56): RainLoop\Service->localHandle()
#7 /var/www/site/app/rainloop/v/1.12.0/app/libraries/RainLoop/Service.php(79): RainLoop\Service->__construct()
#8 /var/www/site/app/rainloop/v/1.12.0/app/handle.php(94): RainLoop\Service::Handle()
#9 /var/www/site/app/rainloop/v/1.12.0/include.php(228): include('/var/www/site/a...')
#10 /var/www/site/app/index.php(13): include('/var/www/site/a...')
#11 {main}
[11:29:06.090][8f59f0c9] AJAX[DATA]: {"Action":"Login","Result":false,"ErrorCode":104,"ErrorMessage":"","ErrorMessageAdditional":"","Time":10116}
[11:29:06.099][8f59f0c9] INFO[MEMORY]: Memory peak usage: 1.25MB
[11:29:06.102][8f59f0c9] INFO[TIME]: Time delta: 10.117286205292
